^C:\DOCUMENTS AND SETTINGS\TEST\LOCAL SETTINGS\APPLICATION DATA\TEMPORARY PROJECTS\CALCULATERADIUS\FORM1.RESX
^C:\DOCUMENTS AND SETTINGS\TEST\LOCAL SETTINGS\APPLICATION DATA\TEMPORARY PROJECTS\CALCULATERADIUS\PROPERTIES\RESOURCES.RESX
C:\WINDOWS\ASSEMBLY\PUBPOL3.DAT
C:\WINDOWS\MICROSOFT.NET\ASSEMBLY\GAC_MSIL\MICROSOFT.BUILD.TASKS.V4.0\V4.0_4.0.0.0__B03F5F7F11D50A3A\MICROSOFT.BUILD.TASKS.V4.0.DLL
^C:\SOURCE\CALCULATERADIUS\CALCULATERADIUS\PROPERTIES\RESOURCES.RESX
C:\WINDOWS\ASSEMBLY\PUBPOL3.DAT
C:\SOURCE\CALCULATERADIUS\CALCULATERADIUS\RESOURCES\SHAPES LISEC_27.JPG
^C:\SOURCE\CALCULATERADIUS\CALCULATERADIUS\FORM1.RESX
